{
  "title": "Promotions",
  "crumbs": [
    {
      "label": "Home",
      "active": "false"
    },
    {
      "label": "Page settings",
      "active": "false"
    },
    {
      "label": "Promotions",
      "active": "true"
    }
  ],
  "menu": [
    {
      "label": "Dashboard",
      "uri": "#",
      "id": "dashboard"
    },
    {
      "label": "Sessions",
      "uri": "#",
      "id": "sessions"
    },
    {
      "label": "Programs",
      "uri": "#",
      "id": "programs"
    },
    {
      "label": "Content Library",
      "uri": "#",
      "id": "content-library"
    },
    {
      "label": "Collections",
      "uri": "#",
      "id": "collections"
    },
    {
      "label": "Community",
      "uri": "#",
      "id": "community"
    },
    {
      "label": "Nutrition",
      "uri": "#",
      "id": "nutrition"
    },
    {
      "label": "Help Center",
      "uri": "#",
      "id": "help-center"
    }
  ],
  "settings": [
    {
      "label": "Settings",
      "uri": "#",
      "id": "settings"
    }
  ],
  "data": {
    "metadata": {
      "headers": [
        {
          "selection": true
        },
        {
          "label": "Subscription Name",
          "sort": true
        },
        {
          "label": "Discount Type"
        },
        {
          "label": "Discount Off"
        },
        {
          "label": "End Date"
        },
        {
          "label": "Products"
        },
        {
          "label": "Status"
        },
        {
          "tooltip": true
        }
      ]
    },
    "payload": [
      {
        "subscriptionName": "Premium",
        "discountType": "Premium",
        "discountOff": "300 - £GDP",
        "endDate": "dd/mm/yy",
        "product": "Meal plan",
        "status": "Active"
      },
      {
        "subscriptionName": "Premium",
        "discountType": "Premium",
        "discountOff": "40 %",
        "endDate": "dd/mm/yy",
        "product": "Course",
        "status": "Active"
      },
      {
        "subscriptionName": "Premium",
        "discountType": "Premium",
        "discountOff": "300 - €EUR",
        "endDate": "dd/mm/yy",
        "product": "Meal plan",
        "status": "Active"
      },
      {
        "subscriptionName": "Premium",
        "discountType": "Premium",
        "discountOff": "300 - $USD",
        "endDate": "dd/mm/yy",
        "product": "Meal plan",
        "status": "Active"
      },
      {
        "subscriptionName": "Premium",
        "discountType": "Premium",
        "discountOff": "40 %",
        "endDate": "dd/mm/yy",
        "product": "Meal plan",
        "status": "Active"
      }
    ]
  }
}